Introduction to Tidy Transcriptomics • biocasia2020tidytranscriptomics
…
From this tidybulk tibble, we can perform differential expression analysis with the tidybulk package.

Filtering lowly transcribed genes

Genes with very low counts across all libraries provide little evidence for differential expression and they can interfere with some of the statistical approximations that are used later in the pipeline. They also add to the multiple testing burden when estimating false discovery rates, reducing power to detect differentially expressed genes. These genes should be filtered out prior to further analysis.

We can perform the filtering using tidybulk keep_abundant or identify_abundant. These functions can use the edgeR filterByExpr function described in (Law et al. 2016) to automatically identify the genes with adequate abundance for differential expression testing. By default, this will keep genes with ~10 counts in a minimum number of samples, the number of the samples in the smallest group. In this dataset the smallest group size is four (as we have four dex-treated samples vs four untreated). Alternatively, we could use identify_abundant to identify which genes are abundant or not (TRUE/FALSE), rather than just keeping the abundant ones.

# Filtering counts
counts_filtered <- counts_tt %>% keep_abundant(factor_of_interest=dex)

# take a look
counts_filtered
#> # A tibble: 127,408 x 14
#>    feature sample counts SampleName cell  dex   albut Run   avgLength Experiment
#>    <fct>   <chr>   <int> <fct>      <fct> <fct> <fct> <fct>     <int> <fct>     
#>  1 ENSG00… 508       679 GSM1275862 N613… untrt untrt SRR1…       126 SRX384345 
#>  2 ENSG00… 508       467 GSM1275862 N613… untrt untrt SRR1…       126 SRX384345 
#>  3 ENSG00… 508       260 GSM1275862 N613… untrt untrt SRR1…       126 SRX384345 
#>  4 ENSG00… 508        60 GSM1275862 N613… untrt untrt SRR1…       126 SRX384345 
#>  5 ENSG00… 508      3251 GSM1275862 N613… untrt untrt SRR1…       126 SRX384345 
#>  6 ENSG00… 508      1433 GSM1275862 N613… untrt untrt SRR1…       126 SRX384345 
#>  7 ENSG00… 508       519 GSM1275862 N613… untrt untrt SRR1…       126 SRX384345 
#>  8 ENSG00… 508       394 GSM1275862 N613… untrt untrt SRR1…       126 SRX384345 
#>  9 ENSG00… 508       172 GSM1275862 N613… untrt untrt SRR1…       126 SRX384345 
#> 10 ENSG00… 508      2112 GSM1275862 N613… untrt untrt SRR1…       126 SRX384345 
#> # … with 127,398 more rows, and 4 more variables: Sample <fct>,
#> #   BioSample <fct>, symbol <chr>, .abundant <lgl>

After running keep_abundant we have a column called .abundant containing TRUE (identify_abundant would have TRUE/FALSE).

Scaling counts to normalise

Scaling of counts, normalisation, is performed to eliminate uninteresting differences between samples due to sequencing depth or composition. A more detailed explanation can be found here. In the tidybulk package the function scale_abundance generates scaled counts, with scaling factors calculated on abundant (filtered) transcripts and applied to all transcripts. We can choose from different normalisation methods. Here we will use the default, edgeR’s trimmed mean of M values (TMM), (Robinson and Oshlack 2010). TMM normalisation (and most scaling normalisation methods) scale relative to one sample.

# Scaling counts
counts_scaled <- counts_filtered %>% scale_abundance()

# take a look
counts_scaled
#> # A tibble: 127,408 x 17
#>    feature sample counts SampleName cell  dex   albut Run   avgLength Experiment
#>    <fct>   <chr>   <int> <fct>      <fct> <fct> <fct> <fct>     <int> <fct>     
#>  1 ENSG00… 508       679 GSM1275862 N613… untrt untrt SRR1…       126 SRX384345 
#>  2 ENSG00… 508       467 GSM1275862 N613… untrt untrt SRR1…       126 SRX384345 
#>  3 ENSG00… 508       260 GSM1275862 N613… untrt untrt SRR1…       126 SRX384345 
#>  4 ENSG00… 508        60 GSM1275862 N613… untrt untrt SRR1…       126 SRX384345 
#>  5 ENSG00… 508      3251 GSM1275862 N613… untrt untrt SRR1…       126 SRX384345 
#>  6 ENSG00… 508      1433 GSM1275862 N613… untrt untrt SRR1…       126 SRX384345 
#>  7 ENSG00… 508       519 GSM1275862 N613… untrt untrt SRR1…       126 SRX384345 
#>  8 ENSG00… 508       394 GSM1275862 N613… untrt untrt SRR1…       126 SRX384345 
#>  9 ENSG00… 508       172 GSM1275862 N613… untrt untrt SRR1…       126 SRX384345 
#> 10 ENSG00… 508      2112 GSM1275862 N613… untrt untrt SRR1…       126 SRX384345 
#> # … with 127,398 more rows, and 7 more variables: Sample <fct>,
#> #   BioSample <fct>, symbol <chr>, .abundant <lgl>, TMM <dbl>,
#> #   multiplier <dbl>, counts_scaled <dbl>
…
Poll: What fraction of variance is explained by PC3?
      See ?reduce_dimensions for how to get additional dimensions.

This joins the result to the counts object.

# Take a look
counts_scal_PCA
#> # A tibble: 127,408 x 19
#>    feature sample counts SampleName cell  dex   albut Run   avgLength Experiment
#>    <fct>   <chr>   <int> <fct>      <fct> <fct> <fct> <fct>     <int> <fct>     
#>  1 ENSG00… 508       679 GSM1275862 N613… untrt untrt SRR1…       126 SRX384345 
#>  2 ENSG00… 508       467 GSM1275862 N613… untrt untrt SRR1…       126 SRX384345 
#>  3 ENSG00… 508       260 GSM1275862 N613… untrt untrt SRR1…       126 SRX384345 
#>  4 ENSG00… 508        60 GSM1275862 N613… untrt untrt SRR1…       126 SRX384345 
#>  5 ENSG00… 508      3251 GSM1275862 N613… untrt untrt SRR1…       126 SRX384345 
#>  6 ENSG00… 508      1433 GSM1275862 N613… untrt untrt SRR1…       126 SRX384345 
#>  7 ENSG00… 508       519 GSM1275862 N613… untrt untrt SRR1…       126 SRX384345 
#>  8 ENSG00… 508       394 GSM1275862 N613… untrt untrt SRR1…       126 SRX384345 
#>  9 ENSG00… 508       172 GSM1275862 N613… untrt untrt SRR1…       126 SRX384345 
#> 10 ENSG00… 508      2112 GSM1275862 N613… untrt untrt SRR1…       126 SRX384345 
#> # … with 127,398 more rows, and 9 more variables: Sample <fct>,
#> #   BioSample <fct>, symbol <chr>, .abundant <lgl>, TMM <dbl>,
#> #   multiplier <dbl>, counts_scaled <dbl>, PC1 <dbl>, PC2 <dbl>
…
  # DESeq2
  test_differential_abundance(
    ~ dex + cell,  
    method = "deseq2",
    prefix = "deseq2_"
  ) 

# take a look

de_all
#> # A tibble: 127,408 x 36
#>    feature sample counts SampleName cell  dex   albut Run   avgLength Experiment
#>    <chr>   <chr>   <int> <fct>      <fct> <fct> <fct> <fct>     <int> <fct>     
#>  1 ENSG00… 508       679 GSM1275862 N613… untrt untrt SRR1…       126 SRX384345 
#>  2 ENSG00… 508       467 GSM1275862 N613… untrt untrt SRR1…       126 SRX384345 
#>  3 ENSG00… 508       260 GSM1275862 N613… untrt untrt SRR1…       126 SRX384345 
#>  4 ENSG00… 508        60 GSM1275862 N613… untrt untrt SRR1…       126 SRX384345 
#>  5 ENSG00… 508      3251 GSM1275862 N613… untrt untrt SRR1…       126 SRX384345 
#>  6 ENSG00… 508      1433 GSM1275862 N613… untrt untrt SRR1…       126 SRX384345 
#>  7 ENSG00… 508       519 GSM1275862 N613… untrt untrt SRR1…       126 SRX384345 
#>  8 ENSG00… 508       394 GSM1275862 N613… untrt untrt SRR1…       126 SRX384345 
#>  9 ENSG00… 508       172 GSM1275862 N613… untrt untrt SRR1…       126 SRX384345 
#> 10 ENSG00… 508      2112 GSM1275862 N613… untrt untrt SRR1…       126 SRX384345 
#> # … with 127,398 more rows, and 26 more variables: Sample <fct>,
#> #   BioSample <fct>, symbol <chr>, .abundant <lgl>, edgerQLT_logFC <dbl>,
#> #   edgerQLT_logCPM <dbl>, edgerQLT_F <dbl>, edgerQLT_PValue <dbl>,
#> #   edgerQLT_FDR <dbl>, edgerLR_logFC <dbl>, edgerLR_logCPM <dbl>,
#> #   edgerLR_LR <dbl>, edgerLR_PValue <dbl>, edgerLR_FDR <dbl>,
#> #   voom_logFC <dbl>, voom_AveExpr <dbl>, voom_t <dbl>, voom_P.Value <dbl>,
#> #   voom_adj.P.Val <dbl>, voom_B <dbl>, deseq2_baseMean <dbl>,
#> #   deseq2_log2FoldChange <dbl>, deseq2_lfcSE <dbl>, deseq2_stat <dbl>,
#> #   deseq2_pvalue <dbl>, deseq2_padj <dbl>
…
Cell type composition analysis

If we are sequencing tissue samples, we may want to know what cell types are present and if there are differences in expression between them. tidybulk has a deconvolve_cellularity function that can help us do this.

For this example we will use a subset of the breast cancer dataset from The Cancer Genome Atlas (TCGA).

BRCA_tidy <- 
    biocasia2020tidytranscriptomics::BRCA %>%
    tidybulk(patient, transcript, count)

BRCA_tidy
#> # A tibble: 198,374 x 5
#>    patient      transcript count  time event_occurred
#>    <fct>        <fct>      <int> <dbl>          <int>
#>  1 TCGA-C8-A275 C1orf112    1571     1              0
#>  2 TCGA-C8-A275 FGR         1873     1              0
#>  3 TCGA-C8-A275 FUCA2       3770     1              0
#>  4 TCGA-C8-A275 GCLC        2738     1              0
#>  5 TCGA-C8-A275 LAS1L       3175     1              0
#>  6 TCGA-C8-A275 ENPP4       1340     1              0
#>  7 TCGA-C8-A275 SEMA3F      5479     1              0
#>  8 TCGA-C8-A275 RAD52        472     1              0
#>  9 TCGA-C8-A275 BAD         1761     1              0
#> 10 TCGA-C8-A275 CD99       14697     1              0
#> # … with 198,364 more rows
…
Create tidySCE

This is a SingleCellExperiment object but it is evaluated as tibble. So it is fully compatible both with SingleCellExperiment and tidyverse APIs.

pbmc_small_tidy <- biocasia2020tidytranscriptomics::pbmc_small %>% tidy()

It looks like a tibble

pbmc_small_tidy
#> # A tibble: 80 x 3
#>    cell           groups file                                            
#>    <chr>          <chr>  <chr>                                           
#>  1 ATGCCAGAACGACT g2     ../data/sample2/outs/filtered_feature_bc_matrix/
#>  2 CATGGCCTGTGCAT g1     ../data/sample1/outs/filtered_feature_bc_matrix/
#>  3 GAACCTGATGAACC g2     ../data/sample2/outs/filtered_feature_bc_matrix/
#>  4 TGACTGGATTCTCA g2     ../data/sample2/outs/filtered_feature_bc_matrix/
#>  5 AGTCAGACTGCACA g2     ../data/sample2/outs/filtered_feature_bc_matrix/
#>  6 TCTGATACACGTGT g1     ../data/sample1/outs/filtered_feature_bc_matrix/
#>  7 TGGTATCTAAACAG g1     ../data/sample1/outs/filtered_feature_bc_matrix/
#>  8 GCAGCTCTGTTTCT g1     ../data/sample1/outs/filtered_feature_bc_matrix/
#>  9 GATATAACACGCAT g1     ../data/sample1/outs/filtered_feature_bc_matrix/
#> 10 AATGTTGACAGTCA g1     ../data/sample1/outs/filtered_feature_bc_matrix/
#> # … with 70 more rows
…
Polish the data

We can interact with our object as we do with any tibble. In this case we want to polish an annotation column.

pbmc_small_polished <-
    pbmc_small_tidy %>%
    
    # Clean groups
    mutate(groups = groups %>% str_remove("^g")) %>%
    
    # Extract sample
    extract(file, "sample", "../data/sample([a-z0-9]+)/outs.+")

pbmc_small_polished
#> # A tibble: 80 x 3
#>    cell           groups sample
#>    <chr>          <chr>  <chr> 
#>  1 ATGCCAGAACGACT 2      2     
#>  2 CATGGCCTGTGCAT 1      1     
#>  3 GAACCTGATGAACC 2      2     
#>  4 TGACTGGATTCTCA 2      2     
#>  5 AGTCAGACTGCACA 2      2     
#>  6 TCTGATACACGTGT 1      1     
#>  7 TGGTATCTAAACAG 1      1     
#>  8 GCAGCTCTGTTTCT 1      1     
#>  9 GATATAACACGCAT 1      1     
#> 10 AATGTTGACAGTCA 1      1     
#> # … with 70 more rows
…
Exploration

Here we plot abundance of two transcripts for each group.

pbmc_small_polished_abundance = 
  pbmc_small_polished %>%
  
  # Extract abundance
  join_transcripts(transcripts=c("HLA-DRA", "TCL1A")) 
#> tidySCE says: A data frame is returned for independent data analysis.
  
pbmc_small_polished_abundance
#> # A tibble: 160 x 6
#>    cell           transcript abundance_counts abundance_logcounts groups sample
#>    <chr>          <chr>                 <dbl>               <dbl> <chr>  <chr> 
#>  1 ATGCCAGAACGACT HLA-DRA                   0                0    2      2     
#>  2 ATGCCAGAACGACT TCL1A                     0                0    2      2     
#>  3 CATGGCCTGTGCAT HLA-DRA                   1                1.96 1      1     
#>  4 CATGGCCTGTGCAT TCL1A                     0                0    1      1     
#>  5 GAACCTGATGAACC HLA-DRA                   0                0    2      2     
#>  6 GAACCTGATGAACC TCL1A                     0                0    2      2     
#>  7 TGACTGGATTCTCA HLA-DRA                   0                0    2      2     
#>  8 TGACTGGATTCTCA TCL1A                     0                0    2      2     
#>  9 AGTCAGACTGCACA HLA-DRA                   1                1.27 2      2     
#> 10 AGTCAGACTGCACA TCL1A                     0                0    2      2     
#> # … with 150 more rows
…
# Perform PCA with scater
pbmc_small_pca <-
    pbmc_small_polished %>%
    runPCA(subset_row=variable_genes)
#> Warning in check_numbers(k = k, nu = nu, nv = nv, limit = min(dim(x)) - : more
#> singular values/vectors requested than available
#> Warning in (function (A, nv = 5, nu = nv, maxit = 1000, work = nv + 7, reorth =
#> TRUE, : You're computing too large a percentage of total singular values, use a
#> standard svd instead.

pbmc_small_pca
#> # A tibble: 80 x 8
#>    cell           groups sample    PC1     PC2   PC3   PC4     PC5
#>    <chr>          <chr>  <chr>   <dbl>   <dbl> <dbl> <dbl>   <dbl>
#>  1 ATGCCAGAACGACT 2      2      -1.39  -0.293  -2.53  3.56  1.54  
#>  2 CATGGCCTGTGCAT 1      1      -0.146 -0.181  -1.32  3.13  1.88  
#>  3 GAACCTGATGAACC 2      2      -1.44   0.447  -1.35  4.87  1.11  
#>  4 TGACTGGATTCTCA 2      2      -3.09  -0.434  -1.54  3.30  0.551 
#>  5 AGTCAGACTGCACA 2      2      -1.49  -0.521  -1.86  2.20  1.62  
#>  6 TCTGATACACGTGT 1      1       0.103 -0.0920 -1.86  2.38  1.14  
#>  7 TGGTATCTAAACAG 1      1      -2.63  -0.0449 -2.00  3.86 -0.0704
#>  8 GCAGCTCTGTTTCT 1      1      -0.796 -0.636  -1.31  4.20  1.42  
#>  9 GATATAACACGCAT 1      1      -0.756  0.0762 -2.29  2.41  1.99  
#> 10 AATGTTGACAGTCA 1      1      -1.34  -0.282  -2.32  3.18  1.63  
#> # … with 70 more rows
…
UMAP

Beside PCA which is a linear dimensionality reduction, we can apply neighbour aware methods such as UMAP, to better define locally similar cells. We can calculate the first 3 UMAP dimensions using the scater framework.

pbmc_small_UMAP <-
    pbmc_small_pca %>%
    runUMAP(ncomponents=3)

pbmc_small_UMAP
#> # A tibble: 80 x 11
#>    cell       groups sample    PC1     PC2   PC3   PC4     PC5 UMAP1 UMAP2 UMAP3
#>    <chr>      <chr>  <chr>   <dbl>   <dbl> <dbl> <dbl>   <dbl> <dbl> <dbl> <dbl>
#>  1 ATGCCAGAA… 2      2      -1.39  -0.293  -2.53  3.56  1.54    10.2 -2.40 -1.87
#>  2 CATGGCCTG… 1      1      -0.146 -0.181  -1.32  3.13  1.88    10.0 -2.82 -1.76
#>  3 GAACCTGAT… 2      2      -1.44   0.447  -1.35  4.87  1.11    10.3 -2.89 -1.92
#>  4 TGACTGGAT… 2      2      -3.09  -0.434  -1.54  3.30  0.551   10.4 -2.72 -1.85
#>  5 AGTCAGACT… 2      2      -1.49  -0.521  -1.86  2.20  1.62    10.1 -2.93 -1.98
#>  6 TCTGATACA… 1      1       0.103 -0.0920 -1.86  2.38  1.14    10.3 -2.67 -1.66
#>  7 TGGTATCTA… 1      1      -2.63  -0.0449 -2.00  3.86 -0.0704  10.5 -2.50 -1.66
#>  8 GCAGCTCTG… 1      1      -0.796 -0.636  -1.31  4.20  1.42    10.2 -2.48 -1.90
#>  9 GATATAACA… 1      1      -0.756  0.0762 -2.29  2.41  1.99    10.2 -2.55 -1.70
#> 10 AATGTTGAC… 1      1      -1.34  -0.282  -2.32  3.18  1.63    10.4 -2.65 -1.89
#> # … with 70 more rows
…
We can proceed with cluster identification with scran.

pbmc_small_cluster <- pbmc_small_UMAP

# Assign clusters to the 'colLabels' of the SingleCellExperiment object
colLabels(pbmc_small_cluster) <-
    pbmc_small_pca %>%
    buildSNNGraph(use.dimred="PCA") %>%
    igraph::cluster_walktrap() %$%
    membership %>%
    as.factor()

# Reorder columns
pbmc_small_cluster %>% select(label, everything())
#> # A tibble: 80 x 12
#>    cell  label groups sample    PC1     PC2   PC3   PC4     PC5 UMAP1 UMAP2
#>    <chr> <fct> <chr>  <chr>   <dbl>   <dbl> <dbl> <dbl>   <dbl> <dbl> <dbl>
#>  1 ATGC… 3     2      2      -1.39  -0.293  -2.53  3.56  1.54    10.2 -2.40
#>  2 CATG… 3     1      1      -0.146 -0.181  -1.32  3.13  1.88    10.0 -2.82
#>  3 GAAC… 3     2      2      -1.44   0.447  -1.35  4.87  1.11    10.3 -2.89
#>  4 TGAC… 3     2      2      -3.09  -0.434  -1.54  3.30  0.551   10.4 -2.72
#>  5 AGTC… 3     2      2      -1.49  -0.521  -1.86  2.20  1.62    10.1 -2.93
#>  6 TCTG… 3     1      1       0.103 -0.0920 -1.86  2.38  1.14    10.3 -2.67
#>  7 TGGT… 3     1      1      -2.63  -0.0449 -2.00  3.86 -0.0704  10.5 -2.50
#>  8 GCAG… 3     1      1      -0.796 -0.636  -1.31  4.20  1.42    10.2 -2.48
#>  9 GATA… 3     1      1      -0.756  0.0762 -2.29  2.41  1.99    10.2 -2.55
#> 10 AATG… 3     1      1      -1.34  -0.282  -2.32  3.18  1.63    10.4 -2.65
#> # … with 70 more rows, and 1 more variable: UMAP3 <dbl>
…
